Stat 471 – Data Formats
…
Casting to more specific data types only works when the values have the correct format

Maybe easier: use column specification in readr.

Example: Box office data

The-Numbers.com provides a weekly summary of box office numbers for movies currently in theatres:

library(rvest)
url <- "https://www.the-numbers.com/box-office-chart/weekend/2025/08/22"
doc <- read_html(url)
tables <- doc |> html_table()
tables[[2]]

# A tibble: 70 × 11
   ``    ``    `Movie Title`     Distributor Gross `%LW` Theaters TheatersChange
   <chr> <chr> <chr>             <chr>       <chr> <chr> <chr>    <chr>         
 1 1     (-)   KPop Demon Hunte… Netflix     $19,… ""    1,700    ""            
 2 2     (1)   Weapons           Warner Bro… $15,… "-37… 3,631    "+181"        
 3 3     (2)   Freakier Friday   Walt Disney $8,8… "-38… 3,675    "-300"        
 4 4     (4)   The Fantastic Fo… Walt Disney $6,0… "-33… 3,190    "-165"        
 5 5     (5)   The Bad Guys 2    Universal   $5,1… "-32… 3,288    "-92"         
 6 6     (3)   Nobody 2          Universal   $3,7… "-60… 3,282    "+22"         
 7 7     (6)   Superman          Warner Bro… $3,4… "-35… 2,338    "-317"        
 8 8     N     Honey Don’t       Focus Feat… $3,0… ""    1,317    ""            
 9 9     (7)   The Naked Gun     Paramount … $2,9… "-39… 2,776    "-251"        
10 10    (8)   Jurassic World R… Universal   $2,1… "-29… 2,100    "-170"        
# ℹ 60 more rows
# ℹ 3 more variables: PerTheater <chr>, TotalGross <chr>,
#   `Weekends InRelease` <chr>
…
