Reviewing Normalizing for 2nd Normal Form – Stat 471
…
property <- janitor::clean_names(property)

library(rvest)
url <- "https://www.the-numbers.com/box-office-chart/weekend/2025/09/05"
doc <- read_html(url)
tables <- doc |> html_table()
tables[[2]]

# A tibble: 70 × 11
   ``    ``    `Movie Title`     Distributor Gross `%LW` Theaters TheatersChange
   <chr> <chr> <chr>             <chr>       <chr> <chr> <chr>    <chr>         
 1 1     N     The Conjuring: L… Warner Bro… $84,… ""    3,802    ""            
 2 2     N     Hamilton          Walt Disney $10,… ""    1,825    ""            
 3 3     (1)   Weapons           Warner Bro… $5,2… "-50… 3,284    "-132"        
 4 4     (4)   Freakier Friday   Walt Disney $3,8… "-43… 3,125    "-350"        
 5 5     (3)   Caught Stealing   Sony Pictu… $3,1… "-59… 3,578    "n/c"         
 6 6     (6)   The Fantastic Fo… Walt Disney $2,8… "-43… 2,385    "-400"        
 7 7     (5)   The Roses         Searchligh… $2,7… "-56… 2,700    "n/c"         
 8 8     (7)   The Bad Guys 2    Universal   $2,5… "-47… 2,602    "-422"        
 9 9     N     Light of the Wor… Salvation … $2,4… ""    2,075    ""            
10 10    (8)   Superman          Warner Bro… $972… "-62… 1,187    "-637"        
# ℹ 60 more rows
# ℹ 3 more variables: PerTheater <chr>, TotalGross <chr>,
#   `Weekends InRelease` <chr>
…
