index – Stat 471
…
Since there are none, we have nothing to worry about in that category.

To create a distribution table, we need to put the weights into bins, and then create a frequency table (including the corresponding percentages) based on those bins.

binned <- brfss.weights %>%
  mutate(weights_bin = cut(X_LLCPWT, breaks = 30, include.lowest = TRUE, right = FALSE))

weights.table <- binned %>%
  group_by(weights_bin) %>%
  summarise(Frequency = n()) %>%
  mutate(Percent = Frequency / sum(Frequency))
print(weights.table)

# A tibble: 29 × 3
   weights_bin Frequency Percent
   <fct>           <int>   <dbl>
 1 [3.32,42.1)      2798  0.217 
 2 [42.1,79.8)      3422  0.266 
 3 [79.8,117)       2247  0.174 
 4 [117,155)        1429  0.111 
 5 [155,193)         858  0.0666
 6 [193,230)         614  0.0476
 7 [230,268)         424  0.0329
 8 [268,306)         290  0.0225
 9 [306,343)         192  0.0149
10 [343,381)         162  0.0126
# ℹ 19 more rows
…
